﻿[
  {
    "Libelle": "Zone1",
    "Pins": [
      {
        "Label": "Pin0",
        "Latitude": 48.94234990930509,
        "Longitude": 2.268350176809804
      },
      {
        "Label": "Pin1",
        "Latitude": 48.937597429548234,
        "Longitude": 2.2672176361083984
      },
      {
        "Label": "Pin2",
        "Latitude": 48.93760582902308,
        "Longitude": 2.268049769400136
      },
      {
        "Label": "Pin3",
        "Latitude": 48.9375212581923,
        "Longitude": 2.269251399038808
      },
      {
        "Label": "Pin4",
        "Latitude": 48.942433945740845,
        "Longitude": 2.269591746759261
      }
    ]
  },
  {
    "Libelle": "Zone2",
    "Pins": [
      {
        "Label": "Pin5",
        "Latitude": 48.94270172652189,
        "Longitude": 2.2707504610536944
      },
      {
        "Label": "Pin6",
        "Latitude": 48.93874124319737,
        "Longitude": 2.2779387812136065
      },
      {
        "Label": "Pin7",
        "Latitude": 48.939093612101296,
        "Longitude": 2.2785825113771807
      },
      {
        "Label": "Pin8",
        "Latitude": 48.94291313138678,
        "Longitude": 2.272037921380843
      }
    ]
  },
  {
    "Libelle": "Zone3",
    "Pins": [
      {
        "Label": "Pin9",
        "Latitude": 48.944089439853585,
        "Longitude": 2.2745384947259026
      },
      {
        "Label": "Pin10",
        "Latitude": 48.94010087781574,
        "Longitude": 2.2818341032464105
      },
      {
        "Label": "Pin11",
        "Latitude": 48.93990355551813,
        "Longitude": 2.284366108556469
      },
      {
        "Label": "Pin12",
        "Latitude": 48.94432902530394,
        "Longitude": 2.276276566167553
      }
    ]
  }
]